%YAML 1.1
%TAG !u! tag:unity3d.com,2011:
--- !u!114 &11400000
MonoBehaviour:
  m_ObjectHideFlags: 0
  m_CorrespondingSourceObject: {fileID: 0}
  m_PrefabInstance: {fileID: 0}
  m_PrefabAsset: {fileID: 0}
  m_GameObject: {fileID: 0}
  m_Enabled: 1
  m_EditorHideFlags: 0
  m_Script: {fileID: 11500000, guid: f2c77f9e0d29eb94d9f0a90073639394, type: 3}
  m_Name: DonationInfoData_02
  m_EditorClassIdentifier: 
  DonationInfoSprite: {fileID: 4583289673117313467, guid: cb945f027e0f24457a0e1037e7d1e1d6, type: 3}
  DonationInfoColor: {r: 0.5372549, g: 0.33333334, b: 0.8196079, a: 1}
  DonationInfoText: Leila hat bei der Geburt ihres Kindes viel Blut verloren
  RewardWindowImage: {fileID: -7638917396073963669, guid: cb945f027e0f24457a0e1037e7d1e1d6, type: 3}
  RewardWindowThankYouText: Dein Blut hat Leila bei der Geburt ihrer Tochter Amira
    gerettet
