%YAML 1.1
%TAG !u! tag:unity3d.com,2011:
--- !u!114 &11400000
MonoBehaviour:
  m_ObjectHideFlags: 0
  m_CorrespondingSourceObject: {fileID: 0}
  m_PrefabInstance: {fileID: 0}
  m_PrefabAsset: {fileID: 0}
  m_GameObject: {fileID: 0}
  m_Enabled: 1
  m_EditorHideFlags: 0
  m_Script: {fileID: 11500000, guid: f2c77f9e0d29eb94d9f0a90073639394, type: 3}
  m_Name: DonationInfoData_03
  m_EditorClassIdentifier: 
  DonationInfoSprite: {fileID: 7419593473033909056, guid: cb945f027e0f24457a0e1037e7d1e1d6, type: 3}
  DonationInfoColor: {r: 0.17254902, g: 0.7960785, b: 0.73333335, a: 1}
  DonationInfoText: Christian wurde bei einem Autounfall sein Bein aufgeschlitzt
  RewardWindowImage: {fileID: 456791744941352271, guid: cb945f027e0f24457a0e1037e7d1e1d6, type: 3}
  RewardWindowThankYouText: Dein Blut hat Christian nach seinem Autounfall das Leben
    gerettet
