%YAML 1.1
%TAG !u! tag:unity3d.com,2011:
--- !u!1045 &1
EditorBuildSettings:
  m_ObjectHideFlags: 0
  serializedVersion: 2
  m_Scenes:
  - enabled: 1
    path: Assets/Scenes/SplashScreen.unity
    guid: 679342c983cc497489a26fc26daebc9c
  - enabled: 1
    path: Assets/Scenes/OverviewMap.unity
    guid: 358db21c2c0c94c4a8776f3075ca19e4
  - enabled: 1
    path: Assets/Scenes/LevelMap.unity
    guid: db0a3b396d4ee2a4e89b4433363bd80f
  - enabled: 1
    path: Assets/Scenes/Level_1.unity
    guid: 2cda990e2423bbf4892e6590ba056729
  - enabled: 1
    path: Assets/Scenes/Level_2.unity
    guid: 926f91adf040c7a4cbabaddbf8d65514
  - enabled: 1
    path: Assets/Scenes/Level_3.unity
    guid: 0b3838fc6ae6220488985d64477b7760
  - enabled: 1
    path: Assets/Scenes/Level_4.unity
    guid: 33cfb61ce3c54e14d86e6c7449d78ee2
  m_configObjects: {}
